<svg version="1.1" id="Livello_1" xmlns:x="http://ns.adobe.com/Extensibility/1.0/" xmlns:i="http://ns.adobe.com/AdobeIllustrator/10.0/" xmlns:graph="http://ns.adobe.com/Graphs/1.0/" xmlns="http://www.w3.org/2000/svg" xmlns:xlink="http://www.w3.org/1999/xlink" x="0px" y="0px" viewBox="0 0 390 180" style="enable-background:new 0 0 390 180;" xml:space="preserve">
<style type="text/css">
	.st0{fill:#FFFFFF;}
</style>
<metadata>
	<sfw xmlns="http://ns.adobe.com/SaveForWeb/1.0/">
		<slices></slices>
		<sliceSourceBounds width="336.4" height="49.3" bottomLeftOrigin="true" y="-114.7" x="26.8"></sliceSourceBounds>
	</sfw>
</metadata>
<g>
	<g>
		<g>
			<g>
				<path class="st0" d="M115.5,85.5c-0.4,2.7-1.6,4.8-3.4,6.2c-1.7,1.4-3.8,2.1-6.3,2.1c-2.8,0-5.2-1-7.1-2.9      c-1.2-1.2-1.9-2.7-2.3-4.5c-0.2-1.1-0.3-3.1-0.3-6c0-2.9,0.1-4.9,0.3-6c0.3-1.8,1.1-3.4,2.3-4.5c1.9-1.9,4.3-2.9,7.1-2.9      c2.5,0,4.7,0.7,6.4,2.1c1.7,1.4,2.8,3.5,3.3,6.2h-5.2c-0.6-2.5-2.1-3.7-4.4-3.7c-1.6,0-2.7,0.6-3.6,1.7c-0.7,0.9-1,3.3-1,7.1      c0,2,0,3.3,0.1,3.8c0.2,1.7,0.6,2.8,1.2,3.6c0.8,0.9,1.9,1.4,3.3,1.4c2.3,0,3.8-1.2,4.4-3.7H115.5z"/>
				<path class="st0" d="M140.7,93.6h-5.4l-1.6-4.7h-9.4l-1.6,4.7h-5.4l9.6-26.3h4L140.7,93.6z M132.4,84.6l-3.2-9.6l-3.3,9.6H132.4      z"/>
				<path class="st0" d="M161.5,85.8c0,2.5-0.9,4.4-2.8,5.9c-1.8,1.4-4.2,2.1-7,2.1c-4.1,0-7.3-1.2-9.6-3.5l3.3-3.3      c1.5,1.5,3.6,2.2,6.4,2.2c3.1,0,4.7-1.1,4.7-3.3c0-1-0.3-1.7-0.8-2.2c-0.5-0.5-1.3-0.8-2.4-0.9l-3.2-0.4c-4.7-0.6-7-3.1-7-7.4      c0-2.4,0.8-4.3,2.5-5.8c1.7-1.5,3.9-2.2,6.7-2.2c3.6,0,6.4,1,8.5,3.1l-3.3,3.2c-1.3-1.2-3.1-1.8-5.4-1.8c-1.3,0-2.3,0.3-3,0.9      c-0.7,0.6-1.1,1.4-1.1,2.4c0,0.8,0.3,1.4,0.8,1.9s1.4,0.9,2.4,1l3.1,0.4c2.2,0.3,3.9,1,5,2C160.8,81.5,161.5,83.3,161.5,85.8z"/>
				<path class="st0" d="M184.2,93.6h-17.3V67.2h17.3v4.6h-12.2V78h10.4v4.6h-10.4V89h12.2V93.6z"/>
				<path class="st0" d="M206.6,71.8h-6.9v21.7h-5.1V71.8h-6.9v-4.6h18.9V71.8z"/>
				<path class="st0" d="M231.2,93.6h-6L220.1,83h-3.7v10.5h-5.1V67.2h10.3c2.6,0,4.7,0.8,6.3,2.4c1.5,1.5,2.3,3.4,2.3,5.7      c0,1.8-0.5,3.3-1.4,4.5c-0.9,1.1-2,1.9-3.4,2.4L231.2,93.6z M225,75.3c0-1-0.3-1.9-1-2.5c-0.7-0.6-1.6-1-2.7-1h-4.8v6.9h4.8      c1.1,0,2-0.3,2.7-1C224.6,77.1,225,76.3,225,75.3z"/>
				<path class="st0" d="M253.3,93.6h-17.3V67.2h17.3v4.6h-12.2V78h10.4v4.6h-10.4V89h12.2V93.6z"/>
				<path class="st0" d="M279,93.6h-4.6l-10.4-16.2v16.2h-5.1V67.2h4.6l10.4,16.1V67.2h5.1V93.6z"/>
				<path class="st0" d="M302.5,71.8h-6.9v21.7h-5.1V71.8h-6.9v-4.6h18.9V71.8z"/>
				<path class="st0" d="M312.3,93.6h-5.1V67.2h5.1V93.6z"/>
				<path class="st0" d="M339.1,93.6h-4.6l-10.4-16.2v16.2h-5.1V67.2h4.6L334,83.3V67.2h5.1V93.6z"/>
				<path class="st0" d="M363.1,93.6h-17.3V67.2h17.3v4.6h-12.2V78h10.4v4.6h-10.4V89h12.2V93.6z"/>
			</g>
			<g>
				<path class="st0" d="M97.1,108.7h-0.7v-9.5h0.7V108.7z"/>
				<path class="st0" d="M105.8,108.7h-5.8v-9.5h0.7v8.9h5V108.7z"/>
				<path class="st0" d="M117.5,101.9c0,0.8-0.3,1.5-0.8,2c-0.5,0.5-1.2,0.7-2.1,0.7h-2.8v4h-0.7v-9.5h3.5c0.4,0,0.8,0.1,1.2,0.2      c0.3,0.1,0.6,0.3,0.9,0.5c0.3,0.2,0.5,0.5,0.6,0.9C117.4,101.1,117.5,101.5,117.5,101.9z M116.8,101.9c0-0.7-0.2-1.2-0.6-1.6      c-0.4-0.4-0.9-0.5-1.6-0.5h-2.7v4.2h2.7c0.7,0,1.2-0.2,1.6-0.5C116.6,103.2,116.8,102.6,116.8,101.9z"/>
				<path class="st0" d="M125.7,104c0,0.9,0,1.5,0,1.9c0,0.4-0.1,0.8-0.2,1.1c-0.1,0.3-0.3,0.6-0.6,0.9c-0.3,0.3-0.7,0.5-1.1,0.7      c-0.4,0.2-0.8,0.3-1.3,0.3s-0.9-0.1-1.3-0.3c-0.4-0.2-0.8-0.4-1.1-0.7c-0.3-0.3-0.5-0.6-0.6-0.9c-0.1-0.3-0.2-0.7-0.2-1.1      c0-0.4,0-1,0-1.9c0-0.9,0-1.5,0-1.9c0-0.4,0.1-0.8,0.2-1.1c0.1-0.3,0.3-0.6,0.6-0.9c0.3-0.3,0.7-0.5,1.1-0.7      c0.4-0.2,0.8-0.3,1.3-0.3s0.9,0.1,1.3,0.3c0.4,0.2,0.8,0.4,1.1,0.7c0.3,0.3,0.5,0.6,0.6,0.9c0.1,0.3,0.2,0.7,0.2,1.1      C125.7,102.5,125.7,103.1,125.7,104z M125,104c0-0.8,0-1.3,0-1.7c0-0.4-0.1-0.7-0.2-1c-0.1-0.3-0.3-0.5-0.5-0.7      c-0.2-0.2-0.5-0.4-0.8-0.5c-0.3-0.1-0.6-0.2-1-0.2c-0.3,0-0.7,0.1-1,0.2c-0.3,0.1-0.6,0.3-0.8,0.5c-0.2,0.2-0.3,0.3-0.4,0.5      s-0.2,0.4-0.2,0.7c-0.1,0.3-0.1,0.6-0.1,1c0,0.4,0,0.8,0,1.3c0,0.8,0,1.3,0,1.7c0,0.4,0.1,0.7,0.2,1c0.1,0.3,0.3,0.5,0.5,0.7      c0.2,0.2,0.5,0.4,0.8,0.5c0.3,0.1,0.6,0.2,1,0.2c0.3,0,0.7-0.1,1-0.2c0.3-0.1,0.6-0.3,0.8-0.5c0.2-0.2,0.4-0.5,0.5-0.7      c0.1-0.3,0.2-0.6,0.2-1C125,105.3,125,104.7,125,104z"/>
				<path class="st0" d="M134.8,108.7h-0.8l-2.3-4.4H129v4.4h-0.7v-9.5h3.6c0.5,0,1,0.1,1.4,0.3c0.4,0.2,0.7,0.5,1,0.9      c0.2,0.4,0.4,0.8,0.4,1.4c0,0.7-0.2,1.3-0.6,1.7c-0.4,0.4-0.9,0.7-1.6,0.8L134.8,108.7z M133.9,101.8c0-0.6-0.2-1.1-0.6-1.4      c-0.4-0.3-0.9-0.5-1.5-0.5H129v3.8h2.8c0.3,0,0.6,0,0.8-0.1s0.5-0.2,0.7-0.4c0.2-0.2,0.3-0.4,0.4-0.6      C133.9,102.4,133.9,102.1,133.9,101.8z"/>
				<path class="st0" d="M142.4,99.8h-2.8v8.9h-0.7v-8.9H136v-0.6h6.4V99.8z"/>
				<path class="st0" d="M150.7,108.7h-0.8l-0.8-2.3h-4.4l-0.8,2.3H143l3.5-9.5h0.6L150.7,108.7z M148.9,105.8l-2-5.6l-2,5.6H148.9z      "/>
				<path class="st0" d="M158.1,108.7h-5.8v-9.5h0.7v8.9h5V108.7z"/>
				<path class="st0" d="M165.8,108.7H160v-9.5h5.8v0.6h-5v3.8h4.3v0.6h-4.3v3.8h5V108.7z"/>
				<path class="st0" d="M172.2,108.7h-0.7v-9.5h0.7V108.7z"/>
				<path class="st0" d="M183.1,108.7h-0.7v-7.8l-2.9,6.5h-0.7l-2.9-6.5v7.8h-0.7v-9.5h0.7l3.3,7.3l3.2-7.3h0.7V108.7z"/>
				<path class="st0" d="M194,108.7h-0.7v-7.8l-2.9,6.5h-0.7l-2.9-6.5v7.8H186v-9.5h0.7l3.3,7.3l3.2-7.3h0.7V108.7z"/>
				<path class="st0" d="M203.1,104c0,0.9,0,1.5,0,1.9c0,0.4-0.1,0.8-0.2,1.1c-0.1,0.3-0.3,0.6-0.6,0.9c-0.3,0.3-0.7,0.5-1.1,0.7      c-0.4,0.2-0.8,0.3-1.3,0.3c-0.5,0-0.9-0.1-1.3-0.3c-0.4-0.2-0.8-0.4-1.1-0.7c-0.3-0.3-0.5-0.6-0.6-0.9c-0.1-0.3-0.2-0.7-0.2-1.1      c0-0.4,0-1,0-1.9c0-0.9,0-1.5,0-1.9c0-0.4,0.1-0.8,0.2-1.1c0.1-0.3,0.3-0.6,0.6-0.9c0.3-0.3,0.7-0.5,1.1-0.7      c0.4-0.2,0.8-0.3,1.3-0.3c0.5,0,0.9,0.1,1.3,0.3c0.4,0.2,0.8,0.4,1.1,0.7c0.3,0.3,0.5,0.6,0.6,0.9c0.1,0.3,0.2,0.7,0.2,1.1      C203.1,102.5,203.1,103.1,203.1,104z M202.4,104c0-0.8,0-1.3,0-1.7c0-0.4-0.1-0.7-0.2-1c-0.1-0.3-0.3-0.5-0.5-0.7      c-0.2-0.2-0.5-0.4-0.8-0.5c-0.3-0.1-0.6-0.2-1-0.2c-0.3,0-0.7,0.1-1,0.2c-0.3,0.1-0.6,0.3-0.8,0.5c-0.2,0.2-0.3,0.3-0.4,0.5      c-0.1,0.2-0.2,0.4-0.2,0.7c-0.1,0.3-0.1,0.6-0.1,1c0,0.4,0,0.8,0,1.3c0,0.8,0,1.3,0,1.7c0,0.4,0.1,0.7,0.2,1      c0.1,0.3,0.3,0.5,0.5,0.7c0.2,0.2,0.5,0.4,0.8,0.5c0.3,0.1,0.6,0.2,1,0.2c0.3,0,0.7-0.1,1-0.2c0.3-0.1,0.6-0.3,0.8-0.5      c0.2-0.2,0.4-0.5,0.5-0.7c0.1-0.3,0.2-0.6,0.2-1C202.4,105.3,202.4,104.7,202.4,104z"/>
				<path class="st0" d="M212.1,106.1c0,0.8-0.2,1.5-0.8,1.9s-1.2,0.7-2,0.7h-3.6v-9.5h3.5c0.5,0,1,0.1,1.4,0.3      c0.4,0.2,0.7,0.5,1,0.9c0.2,0.4,0.4,0.8,0.4,1.3c0,0.5-0.1,0.9-0.4,1.3c-0.3,0.4-0.6,0.7-1.1,0.8c0.5,0.2,0.9,0.5,1.2,0.9      C212,105.1,212.1,105.6,212.1,106.1z M211.2,101.7c0-0.4-0.1-0.8-0.3-1c-0.2-0.3-0.4-0.5-0.8-0.6s-0.7-0.2-1.1-0.2h-2.7v3.7h2.7      c0.6,0,1.1-0.2,1.5-0.5C211,102.8,211.2,102.3,211.2,101.7z M211.4,106.1c0-0.4-0.1-0.8-0.3-1c-0.2-0.3-0.4-0.5-0.7-0.7      c-0.3-0.2-0.7-0.2-1.1-0.2h-2.8v3.9h2.8c0.4,0,0.8-0.1,1.1-0.2c0.3-0.2,0.6-0.4,0.7-0.7C211.3,106.9,211.4,106.5,211.4,106.1z"/>
				<path class="st0" d="M215.4,108.7h-0.7v-9.5h0.7V108.7z"/>
				<path class="st0" d="M224.1,108.7h-5.8v-9.5h0.7v8.9h5V108.7z"/>
				<path class="st0" d="M226.7,108.7H226v-9.5h0.7V108.7z"/>
				<path class="st0" d="M236,108.7h-0.8l-0.8-2.3H230l-0.8,2.3h-0.8l3.5-9.5h0.6L236,108.7z M234.2,105.8l-2-5.6l-2,5.6H234.2z"/>
				<path class="st0" d="M244.2,108.7h-0.8l-2.3-4.4h-2.6v4.4h-0.7v-9.5h3.6c0.5,0,1,0.1,1.4,0.3c0.4,0.2,0.7,0.5,1,0.9      c0.2,0.4,0.4,0.8,0.4,1.4c0,0.7-0.2,1.3-0.6,1.7c-0.4,0.4-0.9,0.7-1.6,0.8L244.2,108.7z M243.3,101.8c0-0.6-0.2-1.1-0.6-1.4      c-0.4-0.3-0.9-0.5-1.5-0.5h-2.8v3.8h2.8c0.3,0,0.6,0,0.8-0.1c0.3-0.1,0.5-0.2,0.7-0.4c0.2-0.2,0.3-0.4,0.4-0.6      C243.3,102.4,243.3,102.1,243.3,101.8z"/>
				<path class="st0" d="M252.3,108.7h-5.8v-9.5h5.8v0.6h-5v3.8h4.3v0.6h-4.3v3.8h5V108.7z"/>
				<path class="st0" d="M264.4,103.8v0.3c0,0.8-0.1,1.6-0.2,2.2c-0.1,0.6-0.4,1.1-0.8,1.5c-0.2,0.2-0.4,0.3-0.6,0.5      c-0.2,0.1-0.5,0.2-0.8,0.3c-0.3,0.1-0.6,0.1-0.9,0.1h-3.2v-9.5h3.2c0.3,0,0.6,0,0.9,0.1c0.3,0.1,0.6,0.2,0.8,0.3      c0.2,0.1,0.5,0.3,0.6,0.5c0.4,0.4,0.6,0.9,0.8,1.4c0.1,0.6,0.2,1.2,0.2,2V103.8z M263.7,103.8v-0.4c0-0.7,0-1.2-0.1-1.7      c-0.1-0.5-0.3-0.8-0.6-1.1c-0.5-0.5-1.2-0.7-2-0.7h-2.3v8.2h2.3c0.9,0,1.6-0.2,2-0.7c0.3-0.3,0.5-0.7,0.6-1.2      c0.1-0.5,0.1-1.1,0.1-1.9V103.8z"/>
				<path class="st0" d="M267.7,108.7H267v-9.5h0.7V108.7z"/>
				<path class="st0" d="M279.9,99.8h-5v3.9h4.3v0.6h-4.3v4.3h-0.7v-9.5h5.8V99.8z"/>
				<path class="st0" d="M282.5,108.7h-0.7v-9.5h0.7V108.7z"/>
				<path class="st0" d="M293.5,108.7h-0.7v-7.8l-2.9,6.5h-0.7l-2.9-6.5v7.8h-0.7v-9.5h0.7l3.3,7.3l3.2-7.3h0.7V108.7z"/>
				<path class="st0" d="M302.8,108.7H302l-0.8-2.3h-4.4l-0.8,2.3h-0.8l3.5-9.5h0.6L302.8,108.7z M301,105.8l-2-5.6l-2,5.6H301z"/>
				<path class="st0" d="M310.8,108.7h-0.8l-0.8-2.3h-4.4l-0.8,2.3h-0.8l3.5-9.5h0.6L310.8,108.7z M309,105.8l-2-5.6l-2,5.6H309z"/>
				<path class="st0" d="M321.3,99.8h-2.8v8.9h-0.7v-8.9h-2.8v-0.6h6.4V99.8z"/>
				<path class="st0" d="M329.6,108.7h-0.8l-2.3-4.4h-2.6v4.4h-0.7v-9.5h3.6c0.5,0,1,0.1,1.4,0.3c0.4,0.2,0.7,0.5,1,0.9      c0.2,0.4,0.4,0.8,0.4,1.4c0,0.7-0.2,1.3-0.6,1.7s-0.9,0.7-1.6,0.8L329.6,108.7z M328.8,101.8c0-0.6-0.2-1.1-0.6-1.4      c-0.4-0.3-0.9-0.5-1.5-0.5h-2.8v3.8h2.8c0.3,0,0.6,0,0.8-0.1s0.5-0.2,0.7-0.4c0.2-0.2,0.3-0.4,0.4-0.6      C328.7,102.4,328.8,102.1,328.8,101.8z"/>
				<path class="st0" d="M337.7,108.7H332v-9.5h5.8v0.6h-5v3.8h4.3v0.6h-4.3v3.8h5V108.7z"/>
				<path class="st0" d="M346.9,108.7h-0.7l-5.5-8.3v8.3H340v-9.5h0.7l5.5,8.2v-8.2h0.7V108.7z"/>
				<path class="st0" d="M355.2,99.8h-2.8v8.9h-0.7v-8.9h-2.8v-0.6h6.4V99.8z"/>
				<path class="st0" d="M363.2,104c0,0.9,0,1.5,0,1.9c0,0.4-0.1,0.8-0.2,1.1c-0.1,0.3-0.3,0.6-0.6,0.9c-0.3,0.3-0.7,0.5-1.1,0.7      c-0.4,0.2-0.8,0.3-1.3,0.3s-0.9-0.1-1.3-0.3c-0.4-0.2-0.8-0.4-1.1-0.7c-0.3-0.3-0.5-0.6-0.6-0.9c-0.1-0.3-0.2-0.7-0.2-1.1      c0-0.4,0-1,0-1.9c0-0.9,0-1.5,0-1.9c0-0.4,0.1-0.8,0.2-1.1c0.1-0.3,0.3-0.6,0.6-0.9c0.3-0.3,0.7-0.5,1.1-0.7      c0.4-0.2,0.8-0.3,1.3-0.3s0.9,0.1,1.3,0.3c0.4,0.2,0.8,0.4,1.1,0.7c0.3,0.3,0.5,0.6,0.6,0.9c0.1,0.3,0.2,0.7,0.2,1.1      C363.2,102.5,363.2,103.1,363.2,104z M362.5,104c0-0.8,0-1.3,0-1.7c0-0.4-0.1-0.7-0.2-1c-0.1-0.3-0.3-0.5-0.5-0.7      c-0.2-0.2-0.5-0.4-0.8-0.5c-0.3-0.1-0.6-0.2-1-0.2c-0.3,0-0.7,0.1-1,0.2c-0.3,0.1-0.6,0.3-0.8,0.5c-0.2,0.2-0.3,0.3-0.4,0.5      c-0.1,0.2-0.2,0.4-0.2,0.7c-0.1,0.3-0.1,0.6-0.1,1c0,0.4,0,0.8,0,1.3c0,0.8,0,1.3,0,1.7c0,0.4,0.1,0.7,0.2,1      c0.1,0.3,0.3,0.5,0.5,0.7c0.2,0.2,0.5,0.4,0.8,0.5c0.3,0.1,0.6,0.2,1,0.2c0.3,0,0.7-0.1,1-0.2c0.3-0.1,0.6-0.3,0.8-0.5      c0.2-0.2,0.4-0.5,0.5-0.7c0.1-0.3,0.2-0.6,0.2-1C362.5,105.3,362.5,104.7,362.5,104z"/>
			</g>
		</g>
		<g>
			<polygon class="st0" points="74.9,89 75.3,89.9 76.3,90 75.6,90.7 75.8,91.7 74.9,91.3 74,91.7 74.2,90.7 73.4,90 74.4,89.9         "/>
			<polygon class="st0" points="68.5,112.9 68.5,111.9 67.7,111.3 68.7,111 69.1,110.1 69.6,110.9 70.6,111 70,111.8 70.3,112.7      69.3,112.4    "/>
			<polygon class="st0" points="74.9,114.7 74.4,113.7 73.4,113.6 74.2,112.9 74,111.9 74.9,112.4 75.8,111.9 75.6,112.9      76.3,113.6 75.3,113.7    "/>
			<polygon class="st0" points="81.3,112.9 80.5,112.4 79.5,112.7 79.8,111.8 79.1,111 80.2,110.9 80.7,110.1 81.1,111 82,111.3      81.2,111.9    "/>
			<polygon class="st0" points="86,108.2 85,108.2 84.4,109 84.1,108 83.2,107.6 84,107.1 84.1,106.1 84.8,106.7 85.8,106.4      85.4,107.4    "/>
			<polygon class="st0" points="87.7,101.8 86.8,102.3 86.7,103.3 86,102.5 85,102.7 85.4,101.8 85,100.9 86,101.1 86.7,100.4      86.8,101.4    "/>
			<polygon class="st0" points="86,95.4 85.4,96.2 85.8,97.2 84.8,96.9 84.1,97.6 84,96.5 83.2,96 84.1,95.6 84.4,94.7 85,95.5         "/>
			<polygon class="st0" points="81.3,90.7 81.2,91.7 82,92.3 81.1,92.6 80.7,93.5 80.2,92.7 79.1,92.6 79.8,91.9 79.5,90.9      80.5,91.3    "/>
		</g>
		<path class="st0" d="M71.8,80.1c0-0.2-0.1-0.4-0.1-0.8c-1.8,1.4-3.5,2.6-5.2,4c0,1.4,0.1,2.8,0,4.1c0,0.6-0.2,1.3-0.6,1.7    c-0.9,0.9-1.9,1.8-3.1,2.3c-0.2-0.1-0.3-0.2-0.5-0.3c-3.6-2.8-7.1-5.6-10.7-8.4c-1-0.8-1-0.8-2-0.1c-0.8,0.5-1.5,1.1-2.3,1.6    c-1.4,0.9-3.1,0.5-4.2-0.8c0.1-0.1,0.2-0.2,0.3-0.3c3.6-2.8,7.3-5.6,11-8.3c0.7-0.6,1.6-0.8,2.5-0.5c0.7,0.2,1.5,0.3,2.1,0.6    c0.8,0.3,1.5,0.2,2.2-0.3c2.8-2.2,5.6-4.2,8.5-6.3c0.4-0.3,0.7-0.6,1.1-0.8c-1.1-1.4-2.2-2-3.7-2.1c-0.6,0-1.3,0-1.9,0    c-10,0-20.1,0-30.1,0c-1.2,0-2.4,0-3.6,0c-1.4,0-2.5,0.7-3.3,1.8c0.1,0.2,0.1,0.3,0.2,0.3c2.9,2.2,5.7,4.5,8.6,6.8    c0.8,0.7,1.6,0.8,2.6,0.5c0.8-0.3,1.7-0.5,2.6-0.7c0.7-0.2,1.5-0.2,2.1,0.3c1.6,1.1,3.1,2.3,4.7,3.6c-2.5,1.9-4.9,3.7-7.3,5.5    c1.9,2.3,4.4,2.6,6.7,1c0.7-0.5,1.3-1,2-1.5c0.3,0.2,0.5,0.4,0.8,0.5c2.2,1.7,4.4,3.4,6.6,5.1c1.4,1.1,2.8,2.2,4.2,3.3    c0.9,0.7,1.1,1.4,0.7,2.2c-0.5,1-1.5,1.3-2.4,0.6c-0.8-0.5-1.5-1.2-2.2-1.8c-2.1-1.6-4.1-3.3-6.2-4.9c-0.3-0.2-0.7-0.8-1.4-0.3    c0.4,0.4,0.7,0.7,1,1c1.5,1.2,3,2.3,4.5,3.5c1,0.8,2.1,1.6,3,2.5c0.6,0.6,0.6,1.4,0.2,2c-0.5,0.7-1.3,0.9-2.1,0.5    c-0.5-0.3-0.9-0.6-1.3-0.9c-2.6-2-5.1-4-7.7-6.1c-0.3-0.2-0.6-0.5-1,0c0.3,0.3,0.5,0.5,0.8,0.8c1.4,1.2,2.9,2.3,4.3,3.4    c1.1,0.9,2.2,1.7,3.2,2.6c0.5,0.4,0.9,0.9,0.7,1.6c-0.2,0.6-0.6,1.1-1.3,1.3c-0.7,0.3-1.2-0.2-1.7-0.6c-1.7-1.3-3.3-2.6-5-3.9    c-1.2-0.9-2.3-1.8-3.5-2.7c-0.2-0.1-0.5-0.1-0.8-0.2c0.1,0.5,0.3,0.8,0.6,1c1.6,1.3,3.3,2.5,4.9,3.8c0.9,0.7,1.7,1.4,2.6,2.1    c0.9,0.8,1.1,1.7,0.4,2.5c-0.6,0.7-1.4,0.8-2.4,0.1c-0.4-0.3-0.8-0.5-1.1-0.8c-5.1-4-10.1-8-15.3-12c-1-0.8-1.5-1.7-1.5-2.9    c0-1.1,0-2.1,0-3.1c-1.7-1.3-3.4-2.6-5.2-4.1c0,0.5-0.1,0.7-0.1,0.9c0,4,0,7.9,0,11.9c0,4.2,0,8.4,0,12.7c0,3.2,2.1,5.4,5.3,5.4    c2.1,0,4.2,0,6.3,0c9.3,0,18.6,0,27.9,0c0.7,0,1.5-0.1,2.2-0.3c1.8-0.6,3.3-2.7,3.3-4.9C71.7,96.6,71.8,88.4,71.8,80.1z     M36.7,94.4c-0.5-0.4-0.9-1-0.6-1.8c1.1,0.2,1.6,1.2,2.5,1.6C37.9,95.1,37.3,94.8,36.7,94.4z M39.6,95.2c0.9,0.4,1.6,1.1,2.4,1.8    C40.2,97.7,39.4,97.1,39.6,95.2z M43.3,99.5c-0.5-0.5-0.9-1-0.4-1.9c0.8,0.7,1.6,1.3,2.4,2C44.5,100.1,43.9,100,43.3,99.5z     M46.8,102.3c-0.8-0.4-0.9-1.1-0.6-2.1c0.9,0.7,1.6,1.3,2.4,1.9C48,102.7,47.4,102.6,46.8,102.3z M63,102.3l-0.9-0.5l0.9-0.5    l0.1-1l0.7,0.7l1-0.2l-0.5,0.9l0.5,0.9l-1-0.2l-0.7,0.7L63,102.3z M65.7,108l-0.3,1l-0.6-0.8l-1,0.1l0.6-0.8l-0.4-0.9l1,0.3    l0.8-0.6l0,1l0.9,0.5L65.7,108z M65.8,96.5l0,1l-0.8-0.6l-1,0.3l0.4-0.9l-0.6-0.8l1,0.1l0.6-0.8l0.3,1l1,0.4L65.8,96.5z     M69.6,92.7l-0.5,0.9l-0.4-1l-1-0.3l0.8-0.6l-0.1-1l0.8,0.6l0.9-0.4l-0.3,1l0.6,0.8L69.6,92.7z"/>
	</g>
</g>
</svg>