<svg version="1.1" id="Livello_1" xmlns:x="http://ns.adobe.com/Extensibility/1.0/" xmlns:i="http://ns.adobe.com/AdobeIllustrator/10.0/" xmlns:graph="http://ns.adobe.com/Graphs/1.0/" xmlns="http://www.w3.org/2000/svg" xmlns:xlink="http://www.w3.org/1999/xlink" x="0px" y="0px" viewBox="0 0 390 180" style="enable-background:new 0 0 390 180;" xml:space="preserve">
<style type="text/css">
	.st0{fill:#FFFFFF;}
</style>
<metadata>
	<sfw xmlns="http://ns.adobe.com/SaveForWeb/1.0/">
		<slices></slices>
		<sliceSourceBounds width="122.9" height="154" bottomLeftOrigin="true" y="-167" x="133.5"></sliceSourceBounds>
	</sfw>
</metadata>
<g>
	<g>
		<g>
			<path class="st0" d="M148.9,150.5c-4.2,0-7.8-1.5-10.8-4.5c-3-3-4.5-6.6-4.5-10.8c0-4.2,1.5-7.8,4.5-10.8c3-3,6.6-4.5,10.8-4.5     c3.5,0,6.6,1.1,9.3,3.2c0.6,0.4,0.9,1,1,1.7c0.1,0.7-0.1,1.3-0.5,1.9s-1,0.9-1.7,1c-0.7,0.1-1.3-0.1-1.9-0.5     c-1.8-1.4-3.9-2.1-6.2-2.1c-2.8,0-5.2,1-7.3,3c-2,2-3,4.4-3,7.2c0,2.8,1,5.2,3,7.3c2,2,4.4,3,7.3,3c2.6,0,4.9-0.9,6.9-2.7     c0,0,0.1-0.1,0.1-0.1l0-5.6h-8.4c-0.7,0-1.3-0.2-1.8-0.7c-0.5-0.5-0.7-1.1-0.7-1.8c0-0.7,0.2-1.3,0.7-1.8     c0.5-0.5,1.1-0.7,1.8-0.7h10.9c0.7,0,1.3,0.2,1.8,0.7c0.5,0.5,0.7,1.1,0.7,1.8l-0.1,13.6c0,0.7-0.2,1.3-0.7,1.8     c-0.5,0.5-1.1,0.7-1.8,0.7h0c-0.6,0-1.1-0.2-1.5-0.5c-0.4-0.3-0.7-0.8-0.9-1.3C153.8,149.9,151.4,150.5,148.9,150.5z"/>
			<path class="st0" d="M187,145.5c0.7,0,1.3,0.2,1.8,0.7c0.5,0.5,0.7,1.1,0.7,1.8c0,0.7-0.2,1.3-0.7,1.8c-0.5,0.5-1.1,0.7-1.8,0.7     h-15.5c-0.7,0-1.3-0.2-1.8-0.7c-0.5-0.5-0.7-1.1-0.7-1.8v-25.7c0-0.7,0.2-1.3,0.7-1.8c0.5-0.5,1.1-0.7,1.8-0.7h0l15.5,0     c0.7,0,1.3,0.2,1.8,0.7c0.5,0.5,0.7,1.1,0.7,1.8s-0.2,1.3-0.7,1.8c-0.5,0.5-1.1,0.7-1.8,0.7h0l-12.9,0v7.8h9.3     c0.7,0,1.3,0.2,1.8,0.7c0.5,0.5,0.7,1.1,0.7,1.8s-0.2,1.3-0.7,1.8c-0.5,0.5-1.1,0.7-1.8,0.7h-9.3v7.8H187z"/>
			<path class="st0" d="M209.7,150.6c-4.2,0-7.8-1.5-10.8-4.5c-3-3-4.5-6.6-4.5-10.8c0-4.2,1.5-7.8,4.5-10.8c3-3,6.6-4.5,10.8-4.5     c3.5,0,6.6,1.1,9.3,3.2c0.5,0.4,0.9,1,1,1.7c0.1,0.7-0.1,1.3-0.5,1.9s-1,0.9-1.7,1c-0.7,0.1-1.3-0.1-1.9-0.5     c-1.8-1.4-3.9-2.1-6.2-2.1c-2.8,0-5.2,1-7.2,3c-2,2-3,4.4-3,7.2c0,2.8,1,5.2,3,7.2c2,2,4.4,3,7.2,3c2.7,0,5-0.9,6.9-2.7     c0.5-0.5,1.1-0.7,1.8-0.7c0.7,0,1.3,0.3,1.8,0.8c0.5,0.5,0.7,1.1,0.7,1.8c0,0.7-0.3,1.3-0.8,1.8     C217.1,149.3,213.7,150.6,209.7,150.6z"/>
			<path class="st0" d="M241.1,150.6c-4.2,0-7.9-1.5-10.9-4.5c-3-3-4.5-6.6-4.5-10.9s1.5-7.9,4.5-10.9c3-3,6.6-4.5,10.9-4.5     c4.2,0,7.9,1.5,10.9,4.5c3,3,4.5,6.6,4.5,10.9s-1.5,7.9-4.5,10.9C249,149.1,245.3,150.6,241.1,150.6z M241.1,124.9     c-2.8,0-5.3,1-7.3,3c-2,2-3,4.5-3,7.3s1,5.3,3,7.3c2,2,4.4,3,7.3,3c2.8,0,5.3-1,7.3-3c2-2,3-4.4,3-7.3s-1-5.3-3-7.3     C246.4,125.9,243.9,124.9,241.1,124.9z"/>
		</g>
		<g>
			<path class="st0" d="M134.7,165.9c-0.7-0.7-1.1-1.6-1.1-2.7c0-1,0.4-1.9,1.1-2.7c0.7-0.7,1.6-1.1,2.7-1.1c0.9,0,1.6,0.3,2.3,0.8     c0.1,0.1,0.1,0.1,0.1,0.2c0,0.1,0,0.2-0.1,0.2c-0.1,0.1-0.1,0.1-0.2,0.1c-0.1,0-0.2,0-0.2-0.1c-0.6-0.4-1.2-0.7-1.9-0.7     c-0.9,0-1.6,0.3-2.2,0.9c-0.6,0.6-0.9,1.4-0.9,2.2c0,0.9,0.3,1.6,0.9,2.2s1.4,0.9,2.2,0.9c0.8,0,1.5-0.3,2.1-0.8     c0.1-0.1,0.1-0.1,0.2-0.1c0.1,0,0.2,0,0.2,0.1c0.1,0.1,0.1,0.1,0.1,0.2c0,0.1,0,0.2-0.1,0.2c-0.7,0.7-1.6,1-2.6,1     C136.3,167,135.4,166.6,134.7,165.9z M139.5,166.9c-0.1-0.1-0.1-0.1-0.1-0.2v-3.4h-2.7c-0.1,0-0.2,0-0.2-0.1     c-0.1-0.1-0.1-0.1-0.1-0.2c0-0.1,0-0.2,0.1-0.2c0.1-0.1,0.1-0.1,0.2-0.1h3c0.1,0,0.2,0,0.2,0.1c0.1,0.1,0.1,0.1,0.1,0.2v3.7     c0,0.1,0,0.2-0.1,0.2c-0.1,0.1-0.1,0.1-0.2,0.1S139.6,167,139.5,166.9z"/>
			<path class="st0" d="M141.8,167c-0.1,0-0.2,0-0.2-0.1c-0.1-0.1-0.1-0.1-0.1-0.2v-7c0-0.1,0-0.2,0.1-0.2c0.1-0.1,0.1-0.1,0.2-0.1     l4.2,0c0.1,0,0.2,0,0.2,0.1c0.1,0.1,0.1,0.1,0.1,0.2c0,0.1,0,0.2-0.1,0.2c-0.1,0.1-0.1,0.1-0.2,0.1l-3.9,0v2.8h2.9     c0.1,0,0.2,0,0.2,0.1c0.1,0.1,0.1,0.1,0.1,0.2c0,0.1,0,0.2-0.1,0.2c-0.1,0.1-0.1,0.1-0.2,0.1h-2.9v2.8h3.9c0.1,0,0.2,0,0.2,0.1     c0.1,0.1,0.1,0.1,0.1,0.2c0,0.1,0,0.2-0.1,0.2c-0.1,0.1-0.1,0.1-0.2,0.1H141.8z"/>
			<path class="st0" d="M149.6,163.5c-0.8,0-1.5-0.2-1.9-0.7c-0.3-0.4-0.5-0.8-0.5-1.3c0-0.6,0.3-1.1,0.7-1.5c0.5-0.4,1-0.6,1.6-0.6     c0.6,0,1.1,0.1,1.5,0.3c0.5,0.3,0.9,0.7,1,1.2c0,0.1,0,0.2,0,0.2c0,0.1-0.1,0.1-0.2,0.1c-0.1,0-0.2,0-0.2,0     c-0.1,0-0.1-0.1-0.1-0.2c-0.1-0.4-0.3-0.6-0.7-0.8c-0.3-0.2-0.7-0.2-1.1-0.2c-0.5,0-0.9,0.1-1.2,0.4c-0.3,0.3-0.5,0.7-0.5,1.1     c0,0.3,0.1,0.6,0.3,0.8c0.3,0.3,0.8,0.5,1.5,0.5c0.1,0,0.2,0,0.2,0.1c0.1,0.1,0.1,0.1,0.1,0.2c0,0.1,0,0.2-0.1,0.2     C149.8,163.5,149.7,163.5,149.6,163.5L149.6,163.5z M148.2,166.7c-0.5-0.3-0.9-0.7-1-1.2c0-0.1,0-0.2,0-0.2     c0-0.1,0.1-0.1,0.2-0.1c0.1,0,0.2,0,0.2,0c0.1,0,0.1,0.1,0.1,0.2c0.1,0.4,0.3,0.6,0.7,0.8c0.3,0.2,0.7,0.2,1.1,0.2     c0.5,0,0.9-0.1,1.2-0.4s0.5-0.7,0.5-1.1c0-0.3-0.1-0.6-0.3-0.8c-0.3-0.3-0.8-0.5-1.5-0.5c-0.1,0-0.2,0-0.2-0.1     c-0.1-0.1-0.1-0.1-0.1-0.2c0-0.1,0-0.2,0.1-0.2c0.1-0.1,0.1-0.1,0.2-0.1c0.8,0,1.5,0.3,1.9,0.7c0.3,0.4,0.5,0.8,0.5,1.3     c0,0.6-0.3,1.1-0.7,1.5c-0.5,0.4-1,0.6-1.6,0.6C149.2,167,148.7,166.9,148.2,166.7z"/>
			<path class="st0" d="M155.1,160H153c-0.1,0-0.2,0-0.2-0.1c-0.1-0.1-0.1-0.1-0.1-0.2c0-0.1,0-0.2,0.1-0.2c0.1-0.1,0.1-0.1,0.2-0.1     h4.8c0.1,0,0.2,0,0.2,0.1c0.1,0.1,0.1,0.1,0.1,0.2c0,0.1,0,0.2-0.1,0.2c-0.1,0.1-0.1,0.1-0.2,0.1h-2.1v6.6c0,0.1,0,0.2-0.1,0.2     c-0.1,0.1-0.1,0.1-0.2,0.1c-0.1,0-0.2,0-0.2-0.1c-0.1-0.1-0.1-0.1-0.1-0.2V160z"/>
			<path class="st0" d="M159.7,166.7c0,0.1,0,0.2-0.1,0.2c-0.1,0.1-0.1,0.1-0.2,0.1c-0.1,0-0.2,0-0.2-0.1c-0.1-0.1-0.1-0.1-0.1-0.2     v-6.9c0-0.1,0-0.2,0.1-0.2c0.1-0.1,0.1-0.1,0.2-0.1c0.1,0,0.2,0,0.2,0.1c0.1,0.1,0.1,0.1,0.1,0.2V166.7z"/>
			<path class="st0" d="M164.7,167c-1,0-1.9-0.4-2.7-1.1s-1.1-1.6-1.1-2.7s0.4-1.9,1.1-2.7c0.7-0.7,1.6-1.1,2.7-1.1s1.9,0.4,2.7,1.1     c0.7,0.7,1.1,1.6,1.1,2.7s-0.4,1.9-1.1,2.7S165.7,167,164.7,167z M164.7,160c-0.9,0-1.6,0.3-2.2,0.9c-0.6,0.6-0.9,1.4-0.9,2.2     c0,0.9,0.3,1.6,0.9,2.2s1.4,0.9,2.2,0.9c0.9,0,1.6-0.3,2.2-0.9c0.6-0.6,0.9-1.4,0.9-2.2c0-0.9-0.3-1.6-0.9-2.2     C166.3,160.4,165.5,160,164.7,160z"/>
			<path class="st0" d="M175.4,166.9L175.4,166.9L175.4,166.9l-4.9-6.2v6c0,0.1,0,0.2-0.1,0.2c-0.1,0.1-0.1,0.1-0.2,0.1     c-0.1,0-0.2,0-0.2-0.1c-0.1-0.1-0.1-0.1-0.1-0.2v-7c0-0.2,0.1-0.3,0.2-0.3c0.1,0,0.3,0,0.4,0.1l4.8,6.2v-6c0-0.1,0-0.2,0.1-0.2     c0.1-0.1,0.1-0.1,0.2-0.1c0.1,0,0.2,0,0.2,0.1c0.1,0.1,0.1,0.1,0.1,0.2v7c0,0,0,0,0,0c0,0,0,0,0,0c0,0,0,0,0,0c0,0,0,0,0,0     c0,0,0,0,0,0c0,0,0,0,0,0c0,0,0,0,0,0c0,0,0,0,0,0c0,0,0,0,0,0c0,0,0,0,0,0c0,0,0,0,0,0c0,0,0,0,0,0c0,0,0,0,0,0c0,0,0,0,0,0     c0,0,0,0,0,0c0,0,0,0,0,0c0,0,0,0-0.1,0c0,0,0,0-0.1,0l0,0c0,0,0,0,0,0C175.5,167,175.5,167,175.4,166.9     C175.5,167,175.5,166.9,175.4,166.9C175.5,166.9,175.5,166.9,175.4,166.9C175.5,166.9,175.5,166.9,175.4,166.9     C175.5,166.9,175.5,166.9,175.4,166.9z"/>
			<path class="st0" d="M178.3,166.7c0,0.1,0,0.2-0.1,0.2c-0.1,0.1-0.1,0.1-0.2,0.1c-0.1,0-0.2,0-0.2-0.1c-0.1-0.1-0.1-0.1-0.1-0.2     v-6.9c0-0.1,0-0.2,0.1-0.2c0.1-0.1,0.1-0.1,0.2-0.1c0.1,0,0.2,0,0.2,0.1c0.1,0.1,0.1,0.1,0.1,0.2V166.7z"/>
			<path class="st0" d="M185.9,167c-1,0-1.9-0.4-2.7-1.1c-0.7-0.7-1.1-1.6-1.1-2.7c0-1.1,0.4-1.9,1.1-2.7c0.7-0.7,1.6-1.1,2.7-1.1     c0.9,0,1.6,0.3,2.3,0.8c0.1,0.1,0.1,0.1,0.1,0.2s0,0.2-0.1,0.2c-0.1,0.1-0.1,0.1-0.2,0.1c-0.1,0-0.2,0-0.2-0.1     c-0.6-0.4-1.2-0.7-1.9-0.7c-0.9,0-1.6,0.3-2.2,0.9c-0.6,0.6-0.9,1.4-0.9,2.2c0,0.9,0.3,1.6,0.9,2.2s1.4,0.9,2.2,0.9     c0.8,0,1.5-0.3,2.1-0.8c0.1-0.1,0.1-0.1,0.2-0.1s0.2,0,0.2,0.1c0.1,0.1,0.1,0.1,0.1,0.2c0,0.1,0,0.2-0.1,0.2     C187.8,166.7,186.9,167,185.9,167z"/>
			<path class="st0" d="M193,167c-1,0-1.9-0.4-2.7-1.1s-1.1-1.6-1.1-2.7s0.4-1.9,1.1-2.7c0.7-0.7,1.6-1.1,2.7-1.1s1.9,0.4,2.7,1.1     c0.7,0.7,1.1,1.6,1.1,2.7s-0.4,1.9-1.1,2.7S194,167,193,167z M193,160c-0.9,0-1.6,0.3-2.2,0.9c-0.6,0.6-0.9,1.4-0.9,2.2     c0,0.9,0.3,1.6,0.9,2.2c0.6,0.6,1.4,0.9,2.2,0.9c0.9,0,1.6-0.3,2.2-0.9c0.6-0.6,0.9-1.4,0.9-2.2c0-0.9-0.3-1.6-0.9-2.2     C194.6,160.4,193.9,160,193,160z"/>
			<path class="st0" d="M203.8,166.9L203.8,166.9L203.8,166.9l-4.9-6.2v6c0,0.1,0,0.2-0.1,0.2c-0.1,0.1-0.1,0.1-0.2,0.1     s-0.2,0-0.2-0.1c-0.1-0.1-0.1-0.1-0.1-0.2v-7c0-0.2,0.1-0.3,0.2-0.3c0.1,0,0.3,0,0.4,0.1l4.8,6.2v-6c0-0.1,0-0.2,0.1-0.2     c0.1-0.1,0.1-0.1,0.2-0.1c0.1,0,0.2,0,0.2,0.1c0.1,0.1,0.1,0.1,0.1,0.2v7c0,0,0,0,0,0c0,0,0,0,0,0c0,0,0,0,0,0c0,0,0,0,0,0     c0,0,0,0,0,0c0,0,0,0,0,0c0,0,0,0,0,0c0,0,0,0,0,0c0,0,0,0,0,0c0,0,0,0,0,0c0,0,0,0,0,0c0,0,0,0,0,0c0,0,0,0,0,0c0,0,0,0,0,0     c0,0,0,0,0,0c0,0,0,0,0,0c0,0,0,0-0.1,0c0,0,0,0-0.1,0l0,0c0,0,0,0,0,0C203.9,167,203.9,167,203.8,166.9     C203.9,167,203.8,166.9,203.8,166.9C203.8,166.9,203.8,166.9,203.8,166.9C203.8,166.9,203.8,166.9,203.8,166.9     C203.8,166.9,203.8,166.9,203.8,166.9z"/>
			<path class="st0" d="M206.3,167c-0.1,0-0.2,0-0.2-0.1c-0.1-0.1-0.1-0.1-0.1-0.2v-7c0-0.1,0-0.2,0.1-0.2c0.1-0.1,0.1-0.1,0.2-0.1     h1.8c1,0,1.9,0.4,2.7,1.1s1.1,1.6,1.1,2.7s-0.4,1.9-1.1,2.7s-1.6,1.1-2.7,1.1L206.3,167L206.3,167z M206.6,166.4l1.4,0     c0.9,0,1.6-0.3,2.2-0.9c0.6-0.6,0.9-1.4,0.9-2.2s-0.3-1.6-0.9-2.2c-0.6-0.6-1.4-0.9-2.2-0.9h-1.4V166.4z"/>
			<path class="st0" d="M216.6,167c-1,0-1.9-0.4-2.7-1.1s-1.1-1.6-1.1-2.7s0.4-1.9,1.1-2.7c0.7-0.7,1.6-1.1,2.7-1.1     c1,0,1.9,0.4,2.7,1.1c0.7,0.7,1.1,1.6,1.1,2.7s-0.4,1.9-1.1,2.7S217.7,167,216.6,167z M216.6,160c-0.9,0-1.6,0.3-2.2,0.9     c-0.6,0.6-0.9,1.4-0.9,2.2c0,0.9,0.3,1.6,0.9,2.2s1.4,0.9,2.2,0.9c0.9,0,1.6-0.3,2.2-0.9c0.6-0.6,0.9-1.4,0.9-2.2     c0-0.9-0.3-1.6-0.9-2.2C218.2,160.4,217.5,160,216.6,160z"/>
			<path class="st0" d="M222.5,166.7c0,0.1,0,0.2-0.1,0.2c-0.1,0.1-0.1,0.1-0.2,0.1c-0.1,0-0.2,0-0.2-0.1c-0.1-0.1-0.1-0.1-0.1-0.2     v-6.9c0-0.2,0.1-0.3,0.2-0.3c0.2,0,0.3,0,0.4,0.1l3.2,5.2l3.2-5.2c0.1-0.1,0.2-0.2,0.4-0.1c0.2,0,0.2,0.1,0.2,0.3v6.9     c0,0.1,0,0.2-0.1,0.2c-0.1,0.1-0.1,0.1-0.2,0.1c-0.1,0-0.2,0-0.2-0.1c-0.1-0.1-0.1-0.1-0.1-0.2v-5.8l-2.8,4.7l0,0v0c0,0,0,0,0,0     c0,0,0,0,0,0c0,0,0,0,0,0c0,0,0,0,0,0c0,0,0,0,0,0c0,0,0,0,0,0c0,0,0,0,0,0c0,0,0,0,0,0c0,0,0,0,0,0c0,0,0,0,0,0c0,0,0,0,0,0     c0,0,0,0,0,0c0,0,0,0,0,0c0,0,0,0,0,0c0,0,0,0,0,0c0,0,0,0,0,0c0,0,0,0,0,0c0,0,0,0,0,0c0,0,0,0,0,0c0,0,0,0,0,0c0,0,0,0,0,0     c0,0,0,0,0,0c0,0,0,0,0,0v0l0,0l-2.8-4.7V166.7z"/>
			<path class="st0" d="M231.7,166.7c0,0.1,0,0.2-0.1,0.2c-0.1,0.1-0.1,0.1-0.2,0.1s-0.2,0-0.2-0.1c-0.1-0.1-0.1-0.1-0.1-0.2v-6.9     c0-0.1,0-0.2,0.1-0.2c0.1-0.1,0.1-0.1,0.2-0.1s0.2,0,0.2,0.1c0.1,0.1,0.1,0.1,0.1,0.2V166.7z"/>
			<path class="st0" d="M238.9,166.9L238.9,166.9L238.9,166.9l-4.9-6.2v6c0,0.1,0,0.2-0.1,0.2c-0.1,0.1-0.1,0.1-0.2,0.1     c-0.1,0-0.2,0-0.2-0.1c-0.1-0.1-0.1-0.1-0.1-0.2v-7c0-0.2,0.1-0.3,0.2-0.3c0.1,0,0.3,0,0.4,0.1l4.8,6.2v-6c0-0.1,0-0.2,0.1-0.2     c0.1-0.1,0.1-0.1,0.2-0.1c0.1,0,0.2,0,0.2,0.1c0.1,0.1,0.1,0.1,0.1,0.2v7c0,0,0,0,0,0c0,0,0,0,0,0c0,0,0,0,0,0c0,0,0,0,0,0     c0,0,0,0,0,0s0,0,0,0c0,0,0,0,0,0c0,0,0,0,0,0c0,0,0,0,0,0c0,0,0,0,0,0c0,0,0,0,0,0c0,0,0,0,0,0c0,0,0,0,0,0c0,0,0,0,0,0     c0,0,0,0,0,0c0,0,0,0,0,0c0,0,0,0-0.1,0c0,0,0,0-0.1,0l0,0c0,0,0,0,0,0C239,167,239,167,238.9,166.9     C239,167,238.9,166.9,238.9,166.9C238.9,166.9,238.9,166.9,238.9,166.9C238.9,166.9,238.9,166.9,238.9,166.9     C238.9,166.9,238.9,166.9,238.9,166.9z"/>
			<path class="st0" d="M241.8,166.7c0,0.1,0,0.2-0.1,0.2c-0.1,0.1-0.1,0.1-0.2,0.1s-0.2,0-0.2-0.1c-0.1-0.1-0.1-0.1-0.1-0.2v-6.9     c0-0.1,0-0.2,0.1-0.2c0.1-0.1,0.1-0.1,0.2-0.1s0.2,0,0.2,0.1c0.1,0.1,0.1,0.1,0.1,0.2V166.7z"/>
			<path class="st0" d="M243.2,167c-0.1,0-0.1-0.1-0.2-0.2c0-0.1,0-0.2,0-0.2l0.7-1.8v0l2.1-5.2c0,0,0,0,0-0.1l0,0c0,0,0,0,0,0     s0,0,0,0c0,0,0,0,0,0c0,0,0.1,0,0.1,0h0c0,0,0,0,0,0c0,0,0,0,0,0c0,0,0,0,0,0c0,0,0.1,0,0.1,0l0,0c0,0,0,0,0,0c0,0,0,0,0,0     c0,0,0,0,0,0c0,0,0,0,0,0.1l2.1,5.2v0l0.7,1.8c0,0.1,0,0.2,0,0.2c0,0.1-0.1,0.1-0.2,0.2c0,0-0.1,0-0.1,0c-0.1,0-0.2-0.1-0.3-0.2     l-0.7-1.6h-3.9l-0.7,1.6c-0.1,0.1-0.1,0.2-0.3,0.2C243.3,167,243.2,167,243.2,167C243.2,167,243.2,167,243.2,167z M247.9,164.6     l-1.7-4l-1.7,4H247.9z"/>
			<path class="st0" d="M250.8,159.4c0.1,0,0.2,0,0.2,0.1c0.1,0.1,0.1,0.1,0.1,0.2v6.6h3.4c0.1,0,0.2,0,0.2,0.1     c0.1,0.1,0.1,0.1,0.1,0.2c0,0.1,0,0.2-0.1,0.2c-0.1,0.1-0.1,0.1-0.2,0.1h-3.7c-0.1,0-0.2,0-0.2-0.1c-0.1-0.1-0.1-0.1-0.1-0.2     v-6.9c0-0.1,0-0.2,0.1-0.2C250.6,159.5,250.7,159.4,250.8,159.4z"/>
			<path class="st0" d="M256.5,166.7c0,0.1,0,0.2-0.1,0.2c-0.1,0.1-0.1,0.1-0.2,0.1c-0.1,0-0.2,0-0.2-0.1c-0.1-0.1-0.1-0.1-0.1-0.2     v-6.9c0-0.1,0-0.2,0.1-0.2c0.1-0.1,0.1-0.1,0.2-0.1c0.1,0,0.2,0,0.2,0.1c0.1,0.1,0.1,0.1,0.1,0.2V166.7z"/>
		</g>
		<path class="st0" d="M235.4,33.7c-6.2-3.7-27.4-17.1-34.9-19.9l0.3,0.1c0,0-2-0.9-4.2-0.9c-2.2,0-4.2,0.9-4.2,0.9l0.3-0.1    c-7.5,2.8-28.7,16.2-34.9,19.9c-6.3,3.8-8.3,9.4-8.2,15c0,3.9,0.8,9.8,1.5,15.1c0.9,7.8,1.5,11.3,1.5,11.3s1.5,9.1,2,11.9    c1.5,9.9,7.7,15.1,15.9,15.1c5.6,0,8,0,8,0c7.9,0,12.5-4.2,13-12l0.1,0c-0.1-2.5,1.4-3,1.4-3l0,0c2.3-0.8,3.5-2.7,3.9-4.3    c0,0,0,0,0,0c0,0,0,0,0,0c0.4,1.6,1.6,3.5,3.9,4.3l0,0c0,0,1.5,0.5,1.4,3l0.1,0c0.5,7.8,5.1,12,13,12c0,0,2.3,0,8,0    c8.2,0,14.4-5.1,15.9-15.1c0.4-2.8,2-11.9,2-11.9s0.5-3.5,1.5-11.3c0.6-5.3,1.4-11.2,1.5-15.1C243.7,43.1,241.8,37.5,235.4,33.7z     M231,74.3c-0.9,2.7-3.3,3.8-5.7,3.8c-0.5,0-1-0.1-1.5-0.1c-1-0.2-2-0.6-2.8-1.1l-0.3-0.2c-0.2-0.2-0.5-0.3-0.7-0.4    c-0.1,0-0.1-0.1-0.2-0.1c-0.2-0.1-0.3-0.2-0.5-0.3c-0.1,0-0.1-0.1-0.2-0.1c-0.2-0.1-0.3-0.1-0.5-0.2c-0.1,0-0.2-0.1-0.2-0.1    c-0.2-0.1-0.3-0.1-0.5-0.2c-0.1,0-0.1,0-0.2-0.1c-0.2,0-0.3-0.1-0.5-0.1c-0.1,0-0.1,0-0.2,0c-0.2,0-0.3-0.1-0.5-0.1    c-0.1,0-0.1,0-0.2,0c-0.2,0-0.3,0-0.5,0c-0.1,0-0.1,0-0.2,0c-0.2,0-0.4,0-0.6,0c-0.2,0-0.4,0-0.6,0c-3.7,0.3-6.6,1.8-8.7,4.1    l0.1-0.1c0,0-0.2,0.3-0.7,0.8c0,0,0,0,0,0c-1.4,1.4-4.7,3.6-8.3-0.5l0,0l0,0c-3.7,4.1-6.9,1.9-8.3,0.5c0,0,0,0,0,0    c-0.4-0.4-0.7-0.8-0.7-0.8l0.1,0.1c-2.1-2.2-5.1-3.8-8.7-4.1c-0.2,0-0.4,0-0.6,0c-0.2,0-0.4,0-0.6,0c-0.1,0-0.1,0-0.2,0    c-0.2,0-0.3,0-0.5,0c-0.1,0-0.1,0-0.2,0c-0.2,0-0.3,0-0.5,0.1c-0.1,0-0.1,0-0.2,0c-0.2,0-0.3,0.1-0.5,0.1c-0.1,0-0.1,0-0.2,0.1    c-0.2,0.1-0.3,0.1-0.5,0.2c-0.1,0-0.2,0.1-0.2,0.1c-0.2,0.1-0.3,0.1-0.5,0.2c-0.1,0-0.1,0.1-0.2,0.1c-0.2,0.1-0.3,0.2-0.5,0.3    c-0.1,0-0.1,0.1-0.2,0.1c-0.2,0.1-0.5,0.3-0.7,0.4l-0.3,0.2c-0.9,0.5-1.8,0.9-2.8,1.1c-0.5,0.1-1,0.1-1.5,0.1    c-2.5,0-4.8-1.2-5.7-3.8c-1-2.9,0.4-5.9,3-7c0.6-0.3,1.3-0.4,2-0.4l0.5,0c1.6,0,3,0.3,4.5,0.7c1.9,0.5,3.8,1,5.7,1.1l0.3,0    c1.1,0,2.1-0.5,3.2-0.6l0.6-0.2c1.2-0.8-0.7-3.9-1.2-4.7l-0.5-0.8c-0.4-0.7-0.9-1.4-1.4-2c-0.5-0.6-1.1-1.2-1.8-1.7    c-1.8-1.2-4-1.8-5.6-3.3c-1.8-1.7-2.4-4.2-1.8-6.3c0.5-1.7,1.6-3.1,3.6-3.8c0.6-0.2,1.1-0.3,1.6-0.3c3.4-0.1,5.5,3.2,6.8,6    c0.1,0.2,0.2,0.4,0.3,0.7c1.2,2.7,2.4,5,4.2,7c0.6,0.7,1.3,1.3,2.1,1.9l0.6,0.5c3.1,2.4,3.8-2.8,4.3-4.6c0.1-1,0.2-2,0.2-3    s-0.1-2-0.3-3c-0.7-2.5-2.1-4.9-2.8-7.4c-0.9-3.6,1.5-8.6,5.6-8.6h0.6h0.6c4.1,0,6.5,5.1,5.6,8.6c-0.6,2.6-2.1,4.9-2.8,7.4    c-0.3,1-0.4,2-0.3,3s0.1,2,0.2,3c0.5,1.8,1.2,7,4.3,4.6l0.6-0.5c0.8-0.6,1.5-1.2,2.1-1.9c1.8-2,3-4.3,4.2-7    c0.1-0.2,0.2-0.4,0.3-0.7c1.4-2.9,3.5-6.2,6.8-6c0.5,0,1.1,0.1,1.6,0.3c2,0.7,3.1,2.1,3.6,3.8c0.6,2.1-0.1,4.6-1.8,6.3    c-1.6,1.5-3.8,2.1-5.6,3.3c-0.7,0.5-1.3,1.1-1.8,1.7c-0.5,0.6-1,1.3-1.4,2l-0.5,0.8c-0.5,0.8-2.4,3.9-1.2,4.7l0.6,0.2    c1.1,0.2,2.1,0.6,3.2,0.6l0.3,0c1.9-0.1,3.8-0.6,5.7-1.1c1.5-0.4,3-0.7,4.5-0.7l0.5,0c0.7,0,1.4,0.2,2,0.4    C230.6,68.4,232,71.4,231,74.3z"/>
	</g>
</g>
</svg>