<svg version="1.1" id="Livello_1" xmlns:x="http://ns.adobe.com/Extensibility/1.0/" xmlns:i="http://ns.adobe.com/AdobeIllustrator/10.0/" xmlns:graph="http://ns.adobe.com/Graphs/1.0/" xmlns="http://www.w3.org/2000/svg" xmlns:xlink="http://www.w3.org/1999/xlink" x="0px" y="0px" viewBox="0 0 390 180" style="enable-background:new 0 0 390 180;" xml:space="preserve">
<style type="text/css">
	.st0{fill:#FFFFFF;}
</style>
<metadata>
	<sfw xmlns="http://ns.adobe.com/SaveForWeb/1.0/">
		<slices></slices>
		<sliceSourceBounds width="265.1" height="48.8" bottomLeftOrigin="true" y="-114.4" x="62.4"></sliceSourceBounds>
	</sfw>
</metadata>
<g>
	<g>
		<g>
			<path class="st0" d="M134,114.2c-6.3,0-10.7-4.2-10.7-10c0-0.6,0.1-1.4,0.2-2l5.2-29.1h8.2l-1.6,7.5h11.4l-1.4,7.4H134l-2.4,14.5     c-0.1,0.3-0.1,0.5-0.1,0.8c0,2.1,1.5,3.6,3.4,3.6h7.2l-1.3,7.4H134V114.2z"/>
			<path class="st0" d="M160.1,114.2c-6.3,0-10.7-4.2-10.7-10c0-0.6,0.1-1.4,0.2-2l5.2-29.1h8.2l-1.6,7.5h11.4l-1.4,7.4h-11.4     l-2.4,14.5c-0.1,0.3-0.1,0.5-0.1,0.8c0,2.1,1.5,3.6,3.4,3.6h7.2l-1.3,7.4h-6.9V114.2z"/>
			<polygon class="st0" points="174.4,114.2 182.6,114.2 188.4,80.5 180.2,80.5    "/>
			<path class="st0" d="M260.5,80.5H250c-3,0-5.9,1.1-8.4,3c-1.8-1.9-4.4-3-7.5-3h-10.5c-2.1,0-4.1,0.5-5.9,1.5l-0.6-1.5h-5.3     l-5.9,33.7h8.2l3.9-22.2c0.3-2.2,2.5-4.1,4.7-4.1H233c1.8,0,3.1,1.3,3.1,3c0,0.3-4,23.3-4,23.3h8.2c0,0,3.9-22.1,3.9-22.3     c0.4-2.2,2.5-4,4.7-4h10.5c1.8,0,3.1,1.3,3.1,3c0,0.3-4,23.3-4,23.3h8.2l3.8-21.5c0.1-0.7,0.2-1.4,0.2-2.1     C270.7,84.8,266.5,80.5,260.5,80.5"/>
			<polygon class="st0" points="190,114.2 198.3,114.2 204.1,80.5 195.9,80.5    "/>
			<path class="st0" d="M285.6,114.2H300c6.6,0,12.9-5.3,14.1-11.9l1.8-9c0.1-0.7,0.2-1.4,0.2-2.1c0-5.8-4.3-10-10.2-10h-14.5     c-6.6,0-12.9,5.3-14.1,11.9l-1.8,9c-0.1,0.6-0.2,1.4-0.2,2.1C275.3,109.9,279.6,114.2,285.6,114.2 M285.7,92     c0.3-2.2,2.5-4.1,4.7-4.1h14.5c1.8,0,3.4,1.3,3.1,3c-0.4,2.7-2.2,12.5-2.2,12.5c-0.3,2.2-2.5,4.1-4.7,4.1h-14.5     c-1.8,0-3.1-1.3-3.1-3C283.5,104.1,285.7,92,285.7,92"/>
			<path class="st0" d="M319.6,85.2c0-0.5,0.1-1,0.3-1.6c0.2-0.5,0.5-0.9,0.8-1.3c0.3-0.3,0.8-0.6,1.3-0.8c0.5-0.2,1-0.3,1.6-0.3     s1,0.1,1.6,0.3c0.5,0.2,0.9,0.5,1.3,0.8c0.3,0.3,0.6,0.8,0.8,1.3c0.2,0.5,0.3,1,0.3,1.6c0,0.5-0.1,1-0.3,1.6     c-0.2,0.5-0.5,0.9-0.8,1.3s-0.8,0.6-1.3,0.8c-0.5,0.2-1,0.3-1.6,0.3s-1-0.1-1.6-0.3s-0.9-0.5-1.3-0.8c-0.3-0.3-0.6-0.8-0.8-1.3     C319.8,86.2,319.6,85.7,319.6,85.2 M320.2,85.2c0,0.5,0.1,0.9,0.3,1.4c0.2,0.4,0.4,0.7,0.7,1c0.3,0.3,0.6,0.5,1,0.7     s0.8,0.3,1.4,0.3s0.9-0.1,1.4-0.3c0.4-0.2,0.8-0.4,1-0.7c0.3-0.3,0.5-0.6,0.7-1c0.2-0.4,0.3-0.8,0.3-1.4c0-0.5-0.1-0.9-0.3-1.4     s-0.4-0.7-0.7-1s-0.6-0.5-1-0.7c-0.4-0.2-0.8-0.3-1.4-0.3s-0.9,0.1-1.4,0.3s-0.7,0.4-1,0.7c-0.3,0.3-0.5,0.6-0.7,1     S320.2,84.7,320.2,85.2 M322.8,87.5h-0.6v-4.6h1.8c0.5,0,0.9,0.1,1.1,0.3c0.2,0.2,0.3,0.5,0.3,0.9c0,0.2,0,0.4-0.1,0.5     c-0.1,0.1-0.1,0.3-0.2,0.4s-0.2,0.2-0.4,0.2c-0.1,0.1-0.3,0.1-0.4,0.1l1.4,2H325l-1.4-2h-0.8V87.5z M322.8,84.9h0.7     c0.2,0,0.3,0,0.5,0c0.1,0,0.3,0,0.4-0.1s0.2-0.1,0.3-0.2c0.1-0.1,0.1-0.2,0.1-0.4c0-0.1,0-0.3-0.1-0.4c-0.1-0.1-0.1-0.2-0.2-0.2     c-0.1-0.1-0.2-0.1-0.3-0.1c-0.1,0-0.2,0-0.4,0h-1V84.9z"/>
			<path class="st0" d="M106.3,102.6c-0.4,2.3-2.6,4.3-4.9,4.3H74.2c-1.9,0-3.2-1.4-3.2-3.1c0-0.3,4.7-26.5,4.7-26.5     c0.4-2.3,2.6-4.3,4.9-4.3h26l6.6-6.6c-1.3-0.4-2.5-0.8-4-0.8H81.6c-6.9,0-13.5,5.5-14.6,12.4l-4.4,23.5c-0.1,0.7-0.2,1.5-0.2,2.2     c0,6,4.5,10.4,10.6,10.4h27.2c6.9,0,13.5-5.5,14.6-12.4l2.9-15.6l-10.5,10.4C106.7,100.2,106.3,102.6,106.3,102.6"/>
			<path class="st0" d="M116.4,68.6L94.9,90.3l-9.7-9.7c-0.1-0.1-0.3-0.2-0.5-0.2c-0.1,0-0.2,0-0.2,0.1l-5.7,5.7     c-0.2,0.3-0.2,0.5,0.1,0.8l15.6,15.6c0.1,0.1,0.3,0.2,0.5,0.2c0.1,0,0.2,0,0.2-0.1l24.2-24.2v-0.2c0.1-0.7,0.2-1.5,0.2-2.2     C119.5,73.1,118.4,70.5,116.4,68.6"/>
		</g>
	</g>
</g>
</svg>